<?xml version="1.0" standalone="no"?>
<!DOCTYPE svg PUBLIC "-//W3C//DTD SVG 20010904//EN"
 "http://www.w3.org/TR/2001/REC-SVG-20010904/DTD/svg10.dtd">
<svg version="1.0" xmlns="http://www.w3.org/2000/svg"
 width="876.000000pt" height="876.000000pt" viewBox="0 0 876.000000 876.000000"
 preserveAspectRatio="xMidYMid meet">
<metadata>
Created by potrace 1.11, written by Peter Selinger 2001-2013
</metadata>
<g transform="translate(0.000000,876.000000) scale(0.100000,-0.100000)"
fill="#000000" stroke="none">
<path d="M4189 8556 c-78 -27 -174 -78 -454 -241 -409 -237 -540 -313 -575
-333 -19 -11 -81 -47 -138 -81 -57 -33 -105 -61 -106 -61 -2 0 -88 -49 -191
-110 -103 -60 -189 -110 -191 -110 -2 0 -23 -11 -45 -26 -22 -14 -57 -34 -77
-46 -20 -11 -210 -120 -422 -241 -212 -121 -405 -231 -430 -245 -25 -14 -78
-45 -118 -69 -41 -24 -75 -43 -77 -43 -8 0 -396 -227 -445 -260 -151 -103
-256 -281 -279 -476 -16 -136 -15 -1824 2 -1844 17 -20 74 -60 87 -60 5 0 10
-4 10 -10 0 -5 4 -10 8 -10 8 0 204 -110 288 -162 21 -13 60 -35 87 -48 26
-14 47 -28 47 -32 0 -5 9 -8 20 -8 11 0 23 -7 26 -15 4 -8 15 -15 25 -15 10 0
19 -4 19 -9 0 -5 8 -11 18 -14 9 -3 40 -20 67 -36 28 -17 64 -38 82 -48 17
-10 67 -38 110 -63 43 -24 81 -44 86 -42 4 1 7 -3 7 -8 0 -6 11 -15 25 -20 14
-5 49 -25 79 -44 29 -18 62 -37 74 -40 12 -4 22 -12 22 -17 0 -5 9 -9 19 -9
11 0 21 -3 23 -8 3 -7 125 -82 134 -82 3 0 24 -13 47 -29 23 -15 52 -31 64
-35 12 -4 34 -17 49 -29 16 -12 40 -29 55 -37 39 -22 88 -68 134 -125 22 -28
42 -52 45 -55 8 -8 29 -43 37 -60 3 -8 14 -33 24 -55 9 -22 18 -44 19 -50 1
-5 7 -21 12 -35 5 -14 13 -34 16 -45 3 -11 7 -436 9 -945 1 -509 3 -937 3
-952 0 -22 8 -31 37 -46 40 -19 562 -319 625 -359 21 -12 39 -23 42 -23 2 0
80 -44 172 -98 257 -150 504 -292 554 -320 25 -14 50 -28 55 -32 25 -20 155
-78 195 -88 69 -17 183 -33 205 -28 11 2 49 7 85 11 84 10 184 46 277 101 41
24 77 44 79 44 2 0 21 11 42 23 20 13 111 67 202 119 91 52 209 120 263 152
251 145 295 170 337 194 25 14 56 32 70 42 21 14 76 45 165 94 11 6 63 37 115
67 52 31 183 107 290 169 200 115 385 223 618 361 73 44 135 79 138 79 2 0 23
11 45 26 22 14 55 33 72 43 149 84 629 368 657 388 90 67 159 149 210 255 66
133 61 -21 67 2048 6 2107 11 1934 -66 2095 -63 133 -162 234 -308 315 -26 15
-162 93 -302 173 -139 81 -255 147 -257 147 -3 0 -23 12 -47 27 -23 15 -87 52
-142 84 -171 97 -309 175 -345 196 -119 70 -1001 578 -1048 605 -30 17 -201
115 -357 206 -33 19 -105 61 -160 92 -55 31 -160 91 -232 133 -267 154 -305
167 -487 166 -109 0 -142 -4 -197 -23z m323 -2137 c122 -24 154 -39 448 -209
872 -504 1001 -579 1035 -605 92 -69 173 -173 222 -284 57 -129 56 -104 58
-916 1 -412 -1 -781 -5 -820 -12 -107 -62 -236 -122 -315 -45 -60 -138 -146
-201 -186 -37 -24 -69 -44 -71 -44 -3 0 -37 -19 -78 -43 -40 -24 -93 -55 -118
-69 -25 -14 -97 -54 -160 -90 -63 -36 -131 -74 -150 -85 -33 -19 -169 -97
-322 -184 -37 -21 -82 -47 -100 -57 -18 -11 -93 -54 -166 -96 -74 -43 -154
-89 -180 -103 -25 -14 -71 -41 -101 -59 -31 -18 -58 -30 -60 -28 -2 2 -5 419
-5 926 -2 1023 1 972 -68 1118 -36 74 -95 160 -111 160 -6 0 -8 3 -5 6 8 7
-83 94 -97 94 -6 0 -17 9 -25 20 -8 11 -19 20 -25 20 -6 0 -27 11 -47 25 -20
13 -42 26 -49 27 -8 2 -22 11 -31 21 -9 10 -18 17 -20 16 -7 -5 -48 13 -48 22
0 5 -4 9 -10 9 -5 0 -47 23 -93 50 -46 28 -89 50 -95 50 -7 0 -12 5 -12 10 0
6 -6 10 -13 10 -7 0 -23 9 -35 20 -12 12 -22 18 -22 15 0 -3 -33 15 -72 40
-40 25 -78 45 -85 45 -7 0 -13 3 -13 8 0 4 -10 12 -23 18 -12 6 -51 28 -87 49
-36 20 -94 53 -130 73 -36 20 -71 42 -78 49 -7 7 -17 13 -22 13 -5 0 -50 25
-101 55 -50 30 -95 55 -98 55 -4 0 -31 16 -61 36 -30 19 -68 42 -85 49 -30 15
-66 36 -75 45 -5 5 -26 16 -127 70 l-32 18 57 31 c74 40 130 73 217 125 107
65 186 112 225 134 70 39 299 172 458 266 90 53 166 96 168 96 2 0 28 16 58
35 30 19 57 35 60 35 2 0 60 33 127 73 189 111 226 127 374 160 40 9 175 7
227 -4z"/>
</g>
</svg>
